{
    "addons": [
        {
            "location": "app-profile",
            "recommendationState": {
                "states": [
                    "recommended"
                ],
                "validNotBefore": 1590639778000,
                "validNotAfter": 1748427778000
            },
            "hidden": false,
            "startupData": null,
            "blocklistURL": null,
            "blocklistState": 0,
            "iconURL": null,
            "icons": {
                "96": "img/ublock.svg",
                "64": "img/ublock.svg",
                "48": "img/ublock.svg",
                "32": "img/ublock.svg",
                "16": "img/ublock.svg"
            },
            "optionalPermissions": {
                "origins": [],
                "permissions": []
            },
            "userPermissions": {
                "origins": [
                    "<all_urls>",
                    "http://*/*",
                    "https://*/*",
                    "file://*/*"
                ],
                "permissions": [
                    "dns",
                    "menus",
                    "privacy",
                    "storage",
                    "tabs",
                    "unlimitedStorage",
                    "webNavigation",
                    "webRequest",
                    "webRequestBlocking"
                ]
            },
            "incognito": "spanning",
            "dependencies": [],
            "seen": true,
            "signedDate": 1590639779000,
            "signedState": 2,
            "targetPlatforms": [],
            "targetApplications": [
                {
                    "maxVersion": null,
                    "minVersion": "55.0",
                    "id": "toolkit@mozilla.org"
                }
            ],
            "locales": [
                {
                    "locales": [
                        "en"
                    ],
                    "contributors": null,
                    "translators": null,
                    "developers": null,
                    "creator": "Raymond Hill & contributors",
                    "description": "Finally, an efficient blocker. Easy on CPU and memory.",
                    "name": "uBlock Origin"
                },
                {
                    "locales": [
                        "ja"
                    ],
                    "contributors": null,
                    "translators": null,
                    "developers": null,
                    "creator": "Raymond Hill & contributors",
                    "description": "高効率ブロッカーが遂に登場。CPUとメモリーの負担を抑えます。",
                    "name": "uBlock Origin"
                },
                {
                    "locales": [
                        "et"
                    ],
                    "contributors": null,
                    "translators": null,
                    "developers": null,
                    "creator": "Raymond Hill & contributors",
                    "description": "Lõpuks on valminud tõhus blokeerija. Protsessori- ja mälusõbralik.",
                    "name": "uBlock Origin"
                },
                {
                    "locales": [
                        "oc"
                    ],
                    "contributors": null,
                    "translators": null,
                    "developers": null,
                    "creator": "Raymond Hill & contributors",
                    "description": "Finally, an efficient blocker. Easy on CPU and memory.",
                    "name": "uBlock Origin"
                },
                {
                    "locales": [
                        "pt-PT"
                    ],
                    "contributors": null,
                    "translators": null,
                    "developers": null,
                    "creator": "Raymond Hill & contributors",
                    "description": "Finalmente, um bloqueador eficiente. Leve na CPU e memória.",
                    "name": "uBlock Origin"
                },
                {
                    "locales": [
                        "te"
                    ],
                    "contributors": null,
                    "translators": null,
                    "developers": null,
                    "creator": "Raymond Hill & contributors",
                    "description": "మొత్తానికి RAM ఇంకా CPU పై తేలికయిన, ఒక సమర్థవంతమైన నిరోధిని.",
                    "name": "uBlock Origin"
                },
                {
                    "locales": [
                        "fr"
                    ],
                    "contributors": null,
                    "translators": null,
                    "developers": null,
                    "creator": "Raymond Hill & contributors",
                    "description": "Un bloqueur de nuisances efficace, qui ménagera votre processeur et votre mémoire vive.",
                    "name": "uBlock Origin"
                },
                {
                    "locales": [
                        "fy"
                    ],
                    "contributors": null,
                    "translators": null,
                    "developers": null,
                    "creator": "Raymond Hill & contributors",
                    "description": "Einlik, in effisjinte adblocker. Brûkt hast gjin prosessorkrêft of ûnthâld.",
                    "name": "uBlock Origin"
                },
                {
                    "locales": [
                        "id"
                    ],
                    "contributors": null,
                    "translators": null,
                    "developers": null,
                    "creator": "Raymond Hill & contributors",
                    "description": "Akhirnya, pemblokir iklan yang efisien. Ringan penggunaan CPU dan memori.",
                    "name": "uBlock Origin"
                },
                {
                    "locales": [
                        "bn"
                    ],
                    "contributors": null,
                    "translators": null,
                    "developers": null,
                    "creator": "Raymond Hill & contributors",
                    "description": "অবশেষে, একটি দক্ষ বিজ্ঞাপন রোধক। সিপিইউ এবং মেমরি সহায়ক।",
                    "name": "uBlock Origin"
                },
                {
                    "locales": [
                        "bg"
                    ],
                    "contributors": null,
                    "translators": null,
                    "developers": null,
                    "creator": "Raymond Hill & contributors",
                    "description": "Най-накрая, ефективен блокер. Щадящ процесора и паметта.",
                    "name": "uBlock Origin"
                },
                {
                    "locales": [
                        "eu"
                    ],
                    "contributors": null,
                    "translators": null,
                    "developers": null,
                    "creator": "Raymond Hill & contributors",
                    "description": "Behingoz, blokeatzaile eraginkor bat. PUZ eta memorian arina.",
                    "name": "uBlock Origin"
                },
                {
                    "locales": [
                        "sv"
                    ],
                    "contributors": null,
                    "translators": null,
                    "developers": null,
                    "creator": "Raymond Hill & contributors",
                    "description": "Äntligen en effektiv blockerare. Snäll mot både processor och minne.",
                    "name": "uBlock Origin"
                },
                {
                    "locales": [
                        "cs"
                    ],
                    "contributors": null,
                    "translators": null,
                    "developers": null,
                    "creator": "Raymond Hill & contributors",
                    "description": "Konečně efektivní blokovač. Nezatěžuje CPU a paměť.",
                    "name": "uBlock Origin"
                },
                {
                    "locales": [
                        "hu"
                    ],
                    "contributors": null,
                    "translators": null,
                    "developers": null,
                    "creator": "Raymond Hill & contributors",
                    "description": "Végre egy hatékony reklám- és követésblokkoló böngészőkhöz, amely kíméletes a processzorral és a memóriával.",
                    "name": "uBlock Origin"
                },
                {
                    "locales": [
                        "kn"
                    ],
                    "contributors": null,
                    "translators": null,
                    "developers": null,
                    "creator": "Raymond Hill & contributors",
                    "description": "ಕೊನೆಗೂ, ಒಂದು ದಕ್ಷ ನಿರ್ಬಂಧಕ. ಮಿತವಾದ ಸಿಪಿಯೂ ಹಾಗು ಮೆಮೊರಿ ಬಳಕೆ.",
                    "name": "uBlock Origin"
                },
                {
                    "locales": [
                        "uk"
                    ],
                    "contributors": null,
                    "translators": null,
                    "developers": null,
                    "creator": "Raymond Hill & contributors",
                    "description": "Ефективний блокувальник реклами таки з’явився. Не навантажує процесор та пам'ять.",
                    "name": "uBlock Origin"
                },
                {
                    "locales": [
                        "ur"
                    ],
                    "contributors": null,
                    "translators": null,
                    "developers": null,
                    "creator": "Raymond Hill & contributors",
                    "description": "آخر کار، ایک مؤثر اشتہار کو روکنے والا، یہ کم cpu اور میموری لیتا ہے.",
                    "name": "uBlock Origin"
                },
                {
                    "locales": [
                        "eo"
                    ],
                    "contributors": null,
                    "translators": null,
                    "developers": null,
                    "creator": "Raymond Hill & contributors",
                    "description": "Finfine rendimenta reklamoblokilo. Afabla por ĉefprocesoro kaj memoro.",
                    "name": "uBlock Origin"
                },
                {
                    "locales": [
                        "vi"
                    ],
                    "contributors": null,
                    "translators": null,
                    "developers": null,
                    "creator": "Raymond Hill & contributors",
                    "description": "Cuối cùng, đã có một công cụ chặn quảng cáo hiệu quả, tiêu tốn ít CPU và bộ nhớ.",
                    "name": "uBlock Origin"
                },
                {
                    "locales": [
                        "ar"
                    ],
                    "contributors": null,
                    "translators": null,
                    "developers": null,
                    "creator": "Raymond Hill & contributors",
                    "description": "وأخيراً, مانع اعلانات كفوء. خفيف على المعالج و الذاكرة.",
                    "name": "uBlock Origin"
                },
                {
                    "locales": [
                        "ka"
                    ],
                    "contributors": null,
                    "translators": null,
                    "developers": null,
                    "creator": "Raymond Hill & contributors",
                    "description": "როგორც იქნა, მძლავრი და შედეგიანი რეკლამების შემზღუდავი. ზოგავს CPU-ს და მეხსიერებას.",
                    "name": "uBlock Origin"
                },
                {
                    "locales": [
                        "it"
                    ],
                    "contributors": null,
                    "translators": null,
                    "developers": null,
                    "creator": "Raymond Hill & contributors",
                    "description": "Finalmente, un blocker efficiente. Leggero sulla CPU e sulla memoria.",
                    "name": "uBlock Origin"
                },
                {
                    "locales": [
                        "no"
                    ],
                    "contributors": null,
                    "translators": null,
                    "developers": null,
                    "creator": "Raymond Hill & contributors",
                    "description": "Endelig en effektiv blokkeringsutvidelse. Lavt CPU- og minnebruk.",
                    "name": "uBlock Origin"
                },
                {
                    "locales": [
                        "lt"
                    ],
                    "contributors": null,
                    "translators": null,
                    "developers": null,
                    "creator": "Raymond Hill & contributors",
                    "description": "Pagaliau, efektyvus blokatorius, neapkraunantis nei procesoriaus, nei darbinės atminties.",
                    "name": "uBlock Origin"
                },
                {
                    "locales": [
                        "sq"
                    ],
                    "contributors": null,
                    "translators": null,
                    "developers": null,
                    "creator": "Raymond Hill & contributors",
                    "description": "Më në fund, një bllokues efikas që nuk e rëndon procesorin dhe memorien.",
                    "name": "uBlock Origin"
                },
                {
                    "locales": [
                        "hi"
                    ],
                    "contributors": null,
                    "translators": null,
                    "developers": null,
                    "creator": "Raymond Hill & contributors",
                    "description": "आख़िरकार, क्रोमियम-बेस्ड ब्राउज़रों के लिए एक कुशल अवरोधक। CPU और स्मृति पर आसान।",
                    "name": "uBlock Origin"
                },
                {
                    "locales": [
                        "ko"
                    ],
                    "contributors": null,
                    "translators": null,
                    "developers": null,
                    "creator": "Raymond Hill & contributors",
                    "description": "이 부가 기능은 효율적인 차단기입니다. CPU와 메모리에 주는 부담이 적습니다.",
                    "name": "uBlock Origin"
                },
                {
                    "locales": [
                        "ta"
                    ],
                    "contributors": null,
                    "translators": null,
                    "developers": null,
                    "creator": "Raymond Hill & contributors",
                    "description": "இறுதியாக, ஒரு திறமையான விளம்பரத் தடுப்பான். கணினியின் மையச் செயற்பகுதியின் மேலும் நினைவகத்தின் மேலும் இலகுவானது.",
                    "name": "uBlock Origin"
                },
                {
                    "locales": [
                        "th"
                    ],
                    "contributors": null,
                    "translators": null,
                    "developers": null,
                    "creator": "Raymond Hill & contributors",
                    "description": "มาแล้ว! โปรแกรมบล็อกโฆษณาเบาเบา ไม่กิน ซีพียู หรือ แรม",
                    "name": "uBlock Origin"
                },
                {
                    "locales": [
                        "az"
                    ],
                    "contributors": null,
                    "translators": null,
                    "developers": null,
                    "creator": "Raymond Hill & contributors",
                    "description": "Axır ki, prosessor və yaddaş yükünü azaldan səmərəli bir əngəlləyici var.",
                    "name": "uBlock Origin"
                },
                {
                    "locales": [
                        "de"
                    ],
                    "contributors": null,
                    "translators": null,
                    "developers": null,
                    "creator": "Raymond Hill & contributors",
                    "description": "Endlich ein effizienter Blocker. Prozessor-freundlich und bescheiden beim Speicherbedarf.",
                    "name": "uBlock Origin"
                },
                {
                    "locales": [
                        "en-GB"
                    ],
                    "contributors": null,
                    "translators": null,
                    "developers": null,
                    "creator": "Raymond Hill & contributors",
                    "description": "Finally, an efficient blocker. Easy on CPU and memory.",
                    "name": "uBlock Origin"
                },
                {
                    "locales": [
                        "mr"
                    ],
                    "contributors": null,
                    "translators": null,
                    "developers": null,
                    "creator": "Raymond Hill & contributors",
                    "description": "शेवटी, एक कार्यक्षम ब्लॉकर क्रोमियम आधारित ब्राउझरांसाठी. सीपीयू आणि मेमरी वर सोपे जातो.",
                    "name": "uBlock Origin"
                },
                {
                    "locales": [
                        "nb"
                    ],
                    "contributors": null,
                    "translators": null,
                    "developers": null,
                    "creator": "Raymond Hill & contributors",
                    "description": "Endelig en effektiv blokkeringsutvidelse. Lavt CPU- og minnebruk.",
                    "name": "uBlock Origin"
                },
                {
                    "locales": [
                        "gl"
                    ],
                    "contributors": null,
                    "translators": null,
                    "developers": null,
                    "creator": "Raymond Hill & contributors",
                    "description": "Ó fin, un bloqueador eficiente que non chupa toda a memoria e o procesador.",
                    "name": "uBlock Origin"
                },
                {
                    "locales": [
                        "ca"
                    ],
                    "contributors": null,
                    "translators": null,
                    "developers": null,
                    "creator": "Raymond Hill & contributors",
                    "description": "Finalment, un blocador eficient que utilitza pocs recursos de memòria i processador.",
                    "name": "uBlock Origin"
                },
                {
                    "locales": [
                        "sk"
                    ],
                    "contributors": null,
                    "translators": null,
                    "developers": null,
                    "creator": "Raymond Hill & contributors",
                    "description": "Konečne efektívny blokovač. Nezaťažuje CPU ani pamäť.",
                    "name": "uBlock Origin"
                },
                {
                    "locales": [
                        "sr"
                    ],
                    "contributors": null,
                    "translators": null,
                    "developers": null,
                    "creator": "Raymond Hill & contributors",
                    "description": "Коначно, ефикасан блокатор. Ниски процесорски и меморијски захтеви.",
                    "name": "uBlock Origin"
                },
                {
                    "locales": [
                        "cv"
                    ],
                    "contributors": null,
                    "translators": null,
                    "developers": null,
                    "creator": "Raymond Hill & contributors",
                    "description": "Тинех Интернет тишкерӳҫӗ валли хӑвӑрт та витӗмлӗ чаркӑч пур.",
                    "name": "uBlock Origin"
                },
                {
                    "locales": [
                        "fa"
                    ],
                    "contributors": null,
                    "translators": null,
                    "developers": null,
                    "creator": "Raymond Hill & contributors",
                    "description": "بالاخره، یک بلاکر کارآمد. کم حجم بر روی پردازنده و حافظه.",
                    "name": "uBlock Origin"
                },
                {
                    "locales": [
                        "ml"
                    ],
                    "contributors": null,
                    "translators": null,
                    "developers": null,
                    "creator": "Raymond Hill & contributors",
                    "description": "അവസാനം, ഒരു കാര്യക്ഷമമായ ബ്ലോക്കര്‍. ലഘുവായ CPU, memory ഉപയോഗം.",
                    "name": "uBlock Origin"
                },
                {
                    "locales": [
                        "ms"
                    ],
                    "contributors": null,
                    "translators": null,
                    "developers": null,
                    "creator": "Raymond Hill & contributors",
                    "description": "Akhirnya, penyekat yang cekap. Tidak membebankan CPU dan memori.",
                    "name": "uBlock Origin"
                },
                {
                    "locales": [
                        "zh-CN"
                    ],
                    "contributors": null,
                    "translators": null,
                    "developers": null,
                    "creator": "Raymond Hill & contributors",
                    "description": "一款高效的网络请求过滤工具，占用极低的内存和 CPU。",
                    "name": "uBlock Origin"
                },
                {
                    "locales": [
                        "ru"
                    ],
                    "contributors": null,
                    "translators": null,
                    "developers": null,
                    "creator": "Raymond Hill & contributors",
                    "description": "Наконец-то, быстрый и эффективный блокировщик для браузеров.",
                    "name": "uBlock Origin"
                },
                {
                    "locales": [
                        "pl"
                    ],
                    "contributors": null,
                    "translators": null,
                    "developers": null,
                    "creator": "Raymond Hill & contributors",
                    "description": "Nareszcie skuteczny bloker charakteryzujący się niskim użyciem procesora i pamięci.",
                    "name": "uBlock Origin"
                },
                {
                    "locales": [
                        "sl"
                    ],
                    "contributors": null,
                    "translators": null,
                    "developers": null,
                    "creator": "Raymond Hill & contributors",
                    "description": "Končno, učinkovita, procesorju in pomnilniku prijazna razširitev za blokiranje oglasov.",
                    "name": "uBlock Origin"
                },
                {
                    "locales": [
                        "lv"
                    ],
                    "contributors": null,
                    "translators": null,
                    "developers": null,
                    "creator": "Raymond Hill & contributors",
                    "description": "Beidzot, efektīvs bloķētājs. Nepārslogo procesoru un atmiņu.",
                    "name": "uBlock Origin"
                },
                {
                    "locales": [
                        "fil"
                    ],
                    "contributors": null,
                    "translators": null,
                    "developers": null,
                    "creator": "Raymond Hill & contributors",
                    "description": "Sa wakas! Isang magaling na blocker para sa Chromium-based browsers. Magaan sa CPU at memory.",
                    "name": "uBlock Origin"
                },
                {
                    "locales": [
                        "hr"
                    ],
                    "contributors": null,
                    "translators": null,
                    "developers": null,
                    "creator": "Raymond Hill & contributors",
                    "description": "Konačno, efikasan blokator. Lak na CPU i memoriji.",
                    "name": "uBlock Origin"
                },
                {
                    "locales": [
                        "fi"
                    ],
                    "contributors": null,
                    "translators": null,
                    "developers": null,
                    "creator": "Raymond Hill & contributors",
                    "description": "Viimeinkin tehokas ja kevyt mainosten estäjä.",
                    "name": "uBlock Origin"
                },
                {
                    "locales": [
                        "hy"
                    ],
                    "contributors": null,
                    "translators": null,
                    "developers": null,
                    "creator": "Raymond Hill & contributors",
                    "description": "Finally, an efficient blocker. Easy on CPU and memory.",
                    "name": "uBlock Origin"
                },
                {
                    "locales": [
                        "kk"
                    ],
                    "contributors": null,
                    "translators": null,
                    "developers": null,
                    "creator": "Raymond Hill & contributors",
                    "description": "Finally, an efficient blocker. Easy on CPU and memory.",
                    "name": "uBlock Origin"
                },
                {
                    "locales": [
                        "ro"
                    ],
                    "contributors": null,
                    "translators": null,
                    "developers": null,
                    "creator": "Raymond Hill & contributors",
                    "description": "În sfârșit, un blocant eficient. Are un impact mic asupra procesorului și memoriei.",
                    "name": "uBlock Origin"
                },
                {
                    "locales": [
                        "bs"
                    ],
                    "contributors": null,
                    "translators": null,
                    "developers": null,
                    "creator": "Raymond Hill & contributors",
                    "description": "Konačno, efikasan bloker. Štedljiv na procesoru i memoriji.",
                    "name": "uBlock Origin"
                },
                {
                    "locales": [
                        "el"
                    ],
                    "contributors": null,
                    "translators": null,
                    "developers": null,
                    "creator": "Raymond Hill & contributors",
                    "description": "Επιτέλους, ένας αποτελεσματικός blocker. Ελαφρύς για τον επεξεργαστή και τη μνήμη.",
                    "name": "uBlock Origin"
                },
                {
                    "locales": [
                        "es"
                    ],
                    "contributors": null,
                    "translators": null,
                    "developers": null,
                    "creator": "Raymond Hill & contributors",
                    "description": "Por fin, un bloqueador eficiente con uso mínimo de procesador y memoria.",
                    "name": "uBlock Origin"
                },
                {
                    "locales": [
                        "pt-BR"
                    ],
                    "contributors": null,
                    "translators": null,
                    "developers": null,
                    "creator": "Raymond Hill & contributors",
                    "description": "Finalmente, um bloqueador eficiente. Com baixo uso de memória e CPU.",
                    "name": "uBlock Origin"
                },
                {
                    "locales": [
                        "zh-TW"
                    ],
                    "contributors": null,
                    "translators": null,
                    "developers": null,
                    "creator": "Raymond Hill & contributors",
                    "description": "一個高效率的網路資源過濾器，使用不多的 CPU 及記憶體資源。",
                    "name": "uBlock Origin"
                },
                {
                    "locales": [
                        "he"
                    ],
                    "contributors": null,
                    "translators": null,
                    "developers": null,
                    "creator": "Raymond Hill & contributors",
                    "description": "סוף סוף, חוסם יעיל. קל על המעבד והזיכרון.",
                    "name": "uBlock Origin"
                },
                {
                    "locales": [
                        "da"
                    ],
                    "contributors": null,
                    "translators": null,
                    "developers": null,
                    "creator": "Raymond Hill & contributors",
                    "description": "Endelig en effektiv blocker. Lavt CPU- og hukommelsesforbrug.",
                    "name": "uBlock Origin"
                },
                {
                    "locales": [
                        "tr"
                    ],
                    "contributors": null,
                    "translators": null,
                    "developers": null,
                    "creator": "Raymond Hill & contributors",
                    "description": "Sonunda, etkili bir engelleyici. İşlemciyi ve belleği yormaz.",
                    "name": "uBlock Origin"
                },
                {
                    "locales": [
                        "nl"
                    ],
                    "contributors": null,
                    "translators": null,
                    "developers": null,
                    "creator": "Raymond Hill & contributors",
                    "description": "Eindelijk, een efficiënte adblocker. Gebruikt weinig processorkracht en geheugen.",
                    "name": "uBlock Origin"
                }
            ],
            "strictCompatibility": true,
            "foreignInstall": false,
            "softDisabled": false,
            "releaseNotesURI": null,
            "sourceURI": "https://addons.mozilla.org/firefox/downloads/file/3579401/ublock_origin-1.27.10-an+fx.xpi?src=search",
            "skinnable": false,
            "path": null,
            "applyBackgroundUpdates": 1,
            "updateDate": 1593422488000,
            "installDate": 1593422488000,
            "embedderDisabled": false,
            "appDisabled": false,
            "userDisabled": false,
            "active": true,
            "visible": true,
            "defaultLocale": {
                "contributors": null,
                "translators": null,
                "developers": null,
                "creator": "Raymond Hill & contributors",
                "description": "Finally, an efficient blocker. Easy on CPU and memory.",
                "name": "uBlock Origin"
            },
            "aboutURL": null,
            "optionsBrowserStyle": true,
            "optionsType": 3,
            "optionsURL": "dashboard.html",
            "updateURL": null,
            "loader": null,
            "type": "extension",
            "version": "1.27.10",
            "syncGUID": "{7eff7b23-4dcd-40d8-a35f-6264f430b709}",
            "id": "uBlock0@raymondhill.net"
        },
        {
            "location": "app-profile",
            "recommendationState": null,
            "hidden": false,
            "startupData": null,
            "blocklistURL": null,
            "blocklistState": 0,
            "iconURL": null,
            "icons": {
                "128": "icons/icon128.png",
                "48": "icons/icon48.png",
                "16": "icons/icon16.png"
            },
            "optionalPermissions": {
                "origins": [],
                "permissions": []
            },
            "userPermissions": {
                "origins": [
                    "<all_urls>",
                    "file:///",
                    "file:///*/"
                ],
                "permissions": [
                    "tabs",
                    "bookmarks",
                    "history",
                    "clipboardRead",
                    "clipboardWrite",
                    "storage",
                    "sessions",
                    "notifications",
                    "webNavigation"
                ]
            },
            "incognito": "spanning",
            "dependencies": [],
            "seen": true,
            "signedDate": 1583220909000,
            "signedState": 2,
            "targetPlatforms": [],
            "targetApplications": [
                {
                    "maxVersion": "*",
                    "minVersion": "48.0",
                    "id": "toolkit@mozilla.org"
                }
            ],
            "locales": [],
            "strictCompatibility": true,
            "foreignInstall": false,
            "softDisabled": false,
            "releaseNotesURI": null,
            "sourceURI": "https://addons.mozilla.org/firefox/downloads/file/3518684/vimium_ff-1.66-fx.xpi?src=search",
            "skinnable": false,
            "path": null,
            "applyBackgroundUpdates": 1,
            "updateDate": 1593681089000,
            "installDate": 1593681089000,
            "embedderDisabled": false,
            "appDisabled": false,
            "userDisabled": false,
            "active": true,
            "visible": true,
            "defaultLocale": {
                "contributors": null,
                "translators": null,
                "developers": null,
                "creator": null,
                "description": "The Hacker's Browser. Vimium provides keyboard shortcuts for navigation and control in the spirit of Vim.",
                "name": "Vimium"
            },
            "aboutURL": null,
            "optionsBrowserStyle": true,
            "optionsType": 3,
            "optionsURL": "pages/options.html",
            "loader": null,
            "type": "extension",
            "version": "1.66",
            "syncGUID": "{1b15d6e6-950a-4525-9fa1-84a21537fea1}",
            "id": "{d7742d87-e61d-4b78-b8a1-b469842139fa}"
        }
    ],
    "schemaVersion": 32
}
